Category,City,Pincode,Geo Risk Ranking
High Risk Filter,Bangalore,560003,8
Very High Risk Zip Rule-Reject,Bangalore,560003,8
High Risk Zip,Bangalore,560003,8
Medium Risk Filter,Bangalore,560003,8
Very High Risk Zip Rule-Reject,Bangalore,560006,10
High Risk Filter,Bangalore,560006,10
Medium Risk Filter,Bangalore,560006,10
Very High Risk Zip Rule-Reject,Bangalore,560008,5
High Risk Filter,Bangalore,560008,5
Medium Risk Zip,Bangalore,560008,5
Medium Risk Filter,Bangalore,560008,5
Very High Risk Zip Rule-Reject,Bangalore,560010,7
High Risk Zip,Bangalore,560010,7
High Risk Filter,Bangalore,560010,7
Medium Risk Filter,Bangalore,560010,7
Very High Risk Zip-Reject,Bangalore,560012,3
Very High Risk Zip Rule-Reject,Bangalore,560012,3
Medium Risk Filter,Bangalore,560012,3
High Risk Filter,Bangalore,560012,3
Very High Risk Zip Rule-Reject,Bangalore,560019,5
Medium Risk Filter,Bangalore,560019,5
High Risk Filter,Bangalore,560019,5
Medium Risk Zip,Bangalore,560019,5
Very High Risk Zip Rule-Reject,Bangalore,560020,6
Medium Risk Filter,Bangalore,560020,6
Very High Risk Zip-Reject,Bangalore,560020,6
High Risk Filter,Bangalore,560020,6
Very High Risk Zip Rule-Reject,Bangalore,560026,10
High Risk Filter,Bangalore,560026,10
Medium Risk Filter,Bangalore,560026,10
Medium Risk Zip,Bangalore,560026,10
Medium Risk Zip,Bangalore,560033,7
Medium Risk Zip,Bangalore,560046,6
Medium Risk Filter,Bangalore,560046,6
High Risk Filter,Bangalore,560046,6
Very High Risk Zip Rule-Reject,Bangalore,560046,6
Medium Risk Zip,Bangalore,560054,5
High Risk Filter,Bangalore,560056,9
Very High Risk Zip-Reject,Bangalore,560056,9
Medium Risk Filter,Bangalore,560056,9
Very High Risk Zip Rule-Reject,Bangalore,560056,9
Very High Risk Zip Rule-Reject,Bangalore,560060,8
Medium Risk Zip,Bangalore,560060,8
High Risk Filter,Bangalore,560060,8
Medium Risk Filter,Bangalore,560060,8
High Risk Filter,Bangalore,560065,4
Medium Risk Filter,Bangalore,560065,4
Very High Risk Zip Rule-Reject,Bangalore,560065,4
Very High Risk Zip Rule-Reject,Bangalore,560067,5
Medium Risk Filter,Bangalore,560067,5
High Risk Filter,Bangalore,560067,5
Medium Risk Zip,Bangalore,560067,5
Medium Risk Zip,Bangalore,560077,3
High Risk Filter,Bangalore,560080,4
Medium Risk Filter,Bangalore,560080,4
Very High Risk Zip-Reject,Bangalore,560080,4
Very High Risk Zip Rule-Reject,Bangalore,560080,4
High Risk Filter,Bangalore,560081,6
Medium Risk Filter,Bangalore,560081,6
Very High Risk Zip Rule-Reject,Bangalore,560081,6
Very High Risk Zip Rule-Reject,Bangalore,560084,7
Medium Risk Filter,Bangalore,560084,7
High Risk Filter,Bangalore,560084,7
High Risk Zip,Bangalore,560084,7
Medium Risk Zip,Bangalore,560086,5
Very High Risk Zip Rule-Reject,Bangalore,560089,8
Medium Risk Filter,Bangalore,560089,8
High Risk Filter,Bangalore,560089,8
High Risk Filter,Bangalore,560091,10
Medium Risk Filter,Bangalore,560091,10
Very High Risk Zip Rule-Reject,Bangalore,560091,10
High Risk Zip,Bangalore,560091,10
Very High Risk Zip Rule-Reject,Bangalore,560097,4
Medium Risk Zip,Bangalore,560097,4
High Risk Filter,Bangalore,560097,4
Medium Risk Filter,Bangalore,560097,4
Medium Risk Filter,Bangalore,560104,1
Very High Risk Zip Rule-Reject,Bangalore,560104,1
High Risk Filter,Bangalore,560104,1
Medium Risk Filter,Bangalore,562114,9
Very High Risk Zip Rule-Reject,Bangalore,562114,9
High Risk Filter,Bangalore,562114,9
Very High Risk Zip-Reject,Bangalore,562114,9
